{
    "KPlugin": {
        "Authors": [
            {
                "Email": "albertvaka@gmail.com",
                "Name": "Albert Vaca Cintora",
                "Name[ar]": "ألبرت فاكا سينتورا",
                "Name[az]": "Albert Vaca Cintora",
                "Name[bg]": "Albert Vaca Cintora",
                "Name[ca@valencia]": "Albert Vaca Cintora",
                "Name[ca]": "Albert Vaca Cintora",
                "Name[cs]": "Albert Vaca Cintora",
                "Name[de]": "Albert Vaca Cintora",
                "Name[en_GB]": "Albert Vaca Cintora",
                "Name[eo]": "Albert Vaca Cintora",
                "Name[es]": "Albert Vaca Cintora",
                "Name[eu]": "Albert Vaca Cintora",
                "Name[fi]": "Albert Vaca Cintora",
                "Name[fr]": "Albert Vaca Cintora",
                "Name[gl]": "Albert Vaca Cintora",
                "Name[he]": "אלברט ואקה סינטורה",
                "Name[hu]": "Albert Vaca Cintora",
                "Name[ia]": "Albert Vaca Cintora",
                "Name[it]": "Albert Vaca Cintora",
                "Name[ja]": "Albert Vaca Cintora",
                "Name[ka]": "Albert Vaca Cintora",
                "Name[ko]": "Albert Vaca Cintora",
                "Name[lt]": "Albert Vaca Cintora",
                "Name[lv]": "Albert Vaca Cintora",
                "Name[nl]": "Albert Vaca Cintora",
                "Name[nn]": "Albert Vaca Cintora",
                "Name[pl]": "Albert Vaca Cintora",
                "Name[pt]": "Albert Vaca Cintora",
                "Name[pt_BR]": "Albert Vaca Cintora",
                "Name[ro]": "Albert Vaca Cintora",
                "Name[ru]": "Albert Vaca Cintora",
                "Name[sl]": "Albert Vaca Cintora",
                "Name[sv]": "Albert Vaca Cintora",
                "Name[tr]": "Albert Vaca Cintora",
                "Name[uk]": "Albert Vaca Cintora",
                "Name[x-test]": "xxAlbert Vaca Cintoraxx",
                "Name[zh_CN]": "Albert Vaca Cintora",
                "Name[zh_TW]": "Albert Vaca Cintora"
            }
        ],
        "Description": "Show notifications for incoming calls",
        "Description[ar]": "أظهر إخطارات المكالمات الواردة",
        "Description[az]": "Daxil olan zəng bildirişlərini göstərmək",
        "Description[bg]": "Показване на известие за входящо обаждане",
        "Description[ca@valencia]": "Mostra les notificacions de les tocades entrants",
        "Description[ca]": "Mostra les notificacions de les trucades entrants",
        "Description[cs]": "Zobrazit oznámení příchozích hovorů",
        "Description[da]": "Vis bekendtgørelser for indkommende opkald",
        "Description[de]": "Benachrichtigungen über eingehende Anrufe anzeigen",
        "Description[el]": "Εμφάνιση ειδοποιήσεων για εισερχόμενες κλήσεις",
        "Description[en_GB]": "Show notifications for incoming calls",
        "Description[eo]": "Montri sciigojn pri envenantaj vokoj",
        "Description[es]": "Mostrar notificaciones para llamadas entrantes",
        "Description[et]": "Sisenevate kõnede märguannete näitamine",
        "Description[eu]": "Erakutsi sarrerako deien jakinarazpenak",
        "Description[fi]": "Näytä saapuvista puheluista ilmoitus",
        "Description[fr]": "Affiche des notifications pour les appels entrants",
        "Description[gl]": "Amosar notificacións de chamadas entrantes.",
        "Description[he]": "הצגת התראות לשיחות נכנסות",
        "Description[hu]": "Értesítés megjelenítése a bejövő hívásokról",
        "Description[ia]": "Monstra notificationes per appellos in arrivata",
        "Description[id]": "Tampilkan notifikasi untuk panggilan yang masuk",
        "Description[is]": "Sýna tilkynningar fyrir innhringingar",
        "Description[it]": "Mostra le notifiche per le chiamate in ingresso",
        "Description[ja]": "着信通知を表示",
        "Description[ka]": "შემომავალი ზარებისთვის გაფრთხილების ჩვენება",
        "Description[ko]": "수신 전화 알림 표시",
        "Description[lt]": "Rodyti pranešimus apie gaunamuosius skambučius",
        "Description[lv]": "Parādīt paziņojumus par ienākošiem zvaniem",
        "Description[nl]": "Meldingen tonen van inkomende oproepen",
        "Description[nn]": "Vis varsling ved oppringing",
        "Description[pa]": "ਆਉਣ ਵਾਲੀਆਂ ਕਾਲਾਂ ਲਈ ਨੋਟੀਫਿਕੇਸ਼ਨ ਵੇਖਾਓ",
        "Description[pl]": "Powiadamia o przychodzących rozmowach z innego urządzenia na tym urządzeniu",
        "Description[pt]": "Mostrar notificações para as chamadas recebidas",
        "Description[pt_BR]": "Mostra notificações para chamadas recebidas",
        "Description[ro]": "Arată notificări pentru apeluri de intrare",
        "Description[ru]": "Просмотр уведомлений о входящих звонках",
        "Description[sk]": "Zobrazenie upozornení prichádzajúcich hovorov",
        "Description[sl]": "Prikaži obvestila za prejete klice",
        "Description[sv]": "Visa underrättelser om inkommande samtal",
        "Description[tr]": "Gelen aramalar için bildirimleri göster",
        "Description[uk]": "Показ сповіщень щодо вхідних дзвінків",
        "Description[x-test]": "xxShow notifications for incoming callsxx",
        "Description[zh_CN]": "显示来电通知",
        "Description[zh_TW]": "顯示來電通知",
        "EnabledByDefault": true,
        "Icon": "call-start",
        "License": "GPL",
        "Name": "Telephony integration",
        "Name[ar]": "تكامل الهاتف",
        "Name[az]": "Telefonun inteqrasiyası",
        "Name[bg]": "Интеграция с телефон",
        "Name[ca@valencia]": "Integració amb la telefonia",
        "Name[ca]": "Integració amb la telefonia",
        "Name[cs]": "Integrace telefonu",
        "Name[da]": "Integration af telefoni",
        "Name[de]": "Telefon-Integration",
        "Name[el]": "Ενσωμάτωση τηλεφωνίας",
        "Name[en_GB]": "Telephony integration",
        "Name[eo]": "Telefonia integriĝo",
        "Name[es]": "Integración con el teléfono",
        "Name[et]": "Telefoniga lõimimine",
        "Name[eu]": "Telefoniarekin integrazioa",
        "Name[fi]": "Puhelinintegrointi",
        "Name[fr]": "Intégration de la téléphonie",
        "Name[gl]": "Integración telefónica",
        "Name[he]": "שילוב טלפוניה",
        "Name[hu]": "Telefonintegráció",
        "Name[ia]": "Integration de telephonia",
        "Name[id]": "Integrasi telepon",
        "Name[is]": "Samþætting símaaðgerða",
        "Name[it]": "Integrazione telefonica",
        "Name[ja]": "電話の統合",
        "Name[ka]": "ტელეფონის ინტეგრაცია",
        "Name[ko]": "전화 통합",
        "Name[lt]": "Telefonijos integracija",
        "Name[lv]": "Telefonijas integrācija",
        "Name[nl]": "Telefoonintegratie",
        "Name[nn]": "Telefonintegrering",
        "Name[pl]": "Powiadomienia o dzwonieniu",
        "Name[pt]": "Integração telefónica",
        "Name[pt_BR]": "Integração telefônica",
        "Name[ro]": "Integrare telefonie",
        "Name[ru]": "Интеграция телефонии",
        "Name[sk]": "Integrácia telefonovania",
        "Name[sl]": "Integracija telefonije",
        "Name[sr@ijekavian]": "Интегрисана телефонија",
        "Name[sr@ijekavianlatin]": "Integrisana telefonija",
        "Name[sr@latin]": "Integrisana telefonija",
        "Name[sr]": "Интегрисана телефонија",
        "Name[sv]": "Integrering av telefoni",
        "Name[tr]": "Telefon tümleştirmesi",
        "Name[uk]": "Інтеграція з системою телефонії",
        "Name[x-test]": "xxTelephony integrationxx",
        "Name[zh_CN]": "Telephony 集成",
        "Name[zh_TW]": "電話整合"
    },
    "X-KdeConnect-OutgoingPacketType": [
        "kdeconnect.telephony.request_mute"
    ],
    "X-KdeConnect-SupportedPacketType": [
        "kdeconnect.telephony"
    ]
}
